{"response":{"status":"ok","userTier":"developer","total":4441,"startIndex":1,"pageSize":10,"currentPage":1,"pages":445,"orderBy":"relevance","results":[{"id":"artanddesign/ng-interactive/2016/jul/03/simone-lia-on-brexit","type":"interactive","sectionId":"artanddesign","sectionName":"Art and design","webPublicationDate":"2016-07-03T06:45:08Z","webTitle":"Simone Lia on Brexit","webUrl":"https://www.theguardian.com/artanddesign/ng-interactive/2016/jul/03/simone-lia-on-brexit","apiUrl":"https://content.guardianapis.com/artanddesign/ng-interactive/2016/jul/03/simone-lia-on-brexit","isHosted":false},{"id":"commentisfree/2016/jul/07/stories-buried-brexit-child-poverty-un-austerity","type":"article","sectionId":"commentisfree","sectionName":"Opinion","webPublicationDate":"2016-07-07T13:10:04Z","webTitle":"Five stories buried by Brexit | Frances Ryan","webUrl":"https://www.theguardian.com/commentisfree/2016/jul/07/stories-buried-brexit-child-poverty-un-austerity","apiUrl":"https://content.guardianapis.com/commentisfree/2016/jul/07/stories-buried-brexit-child-poverty-un-austerity","isHosted":false},{"id":"business/2016/jul/08/brexit-vote-batters-consumer-confidence-slide-gfk-yougov-regions","type":"article","sectionId":"business","sectionName":"Business","webPublicationDate":"2016-07-07T23:05:05Z","webTitle":"Brexit vote batters consumer confidence","webUrl":"https://www.theguardian.com/business/2016/jul/08/brexit-vote-batters-consumer-confidence-slide-gfk-yougov-regions","apiUrl":"https://content.guardianapis.com/business/2016/jul/08/brexit-vote-batters-consumer-confidence-slide-gfk-yougov-regions","isHosted":false},{"id":"technology/2016/jun/15/facebook-denies-pro-brexit-bias","type":"article","sectionId":"technology","sectionName":"Technology","webPublicationDate":"2016-06-15T07:46:03Z","webTitle":"Facebook denies pro-Brexit bias","webUrl":"https://www.theguardian.com/technology/2016/jun/15/facebook-denies-pro-brexit-bias","apiUrl":"https://content.guardianapis.com/technology/2016/jun/15/facebook-denies-pro-brexit-bias","isHosted":false},{"id":"us-news/live/2016/jun/24/donald-trump-brexit-referendum-clinton-sanders","type":"liveblog","sectionId":"us-news","sectionName":"US news","webPublicationDate":"2016-06-24T21:00:42Z","webTitle":"Trump mixes Brexit and pleasure","webUrl":"https://www.theguardian.com/us-news/live/2016/jun/24/donald-trump-brexit-referendum-clinton-sanders","apiUrl":"https://content.guardianapis.com/us-news/live/2016/jun/24/donald-trump-brexit-referendum-clinton-sanders","isHosted":false},{"id":"politics/2016/may/30/brexit-problems-for-disabled-travellers","type":"article","sectionId":"politics","sectionName":"Politics","webPublicationDate":"2016-05-30T17:42:44Z","webTitle":"Brexit problems for disabled travellers | Letters","webUrl":"https://www.theguardian.com/politics/2016/may/30/brexit-problems-for-disabled-travellers","apiUrl":"https://content.guardianapis.com/politics/2016/may/30/brexit-problems-for-disabled-travellers","isHosted":false},{"id":"politics/blog/2016/jun/16/can-david-cameron-survive-brexit","type":"article","sectionId":"politics","sectionName":"Politics","webPublicationDate":"2016-06-16T10:52:24Z","webTitle":"Can David Cameron survive Brexit? | Michael White","webUrl":"https://www.theguardian.com/politics/blog/2016/jun/16/can-david-cameron-survive-brexit","apiUrl":"https://content.guardianapis.com/politics/blog/2016/jun/16/can-david-cameron-survive-brexit","isHosted":false},{"id":"lifeandstyle/ng-interactive/2016/jul/06/the-brexit-effect-on-mental-health-cartoon","type":"interactive","sectionId":"lifeandstyle","sectionName":"Life and style","webPublicationDate":"2016-07-06T09:45:30Z","webTitle":"The Brexit effect on ​mental health – cartoon","webUrl":"https://www.theguardian.com/lifeandstyle/ng-interactive/2016/jul/06/the-brexit-effect-on-mental-health-cartoon","apiUrl":"https://content.guardianapis.com/lifeandstyle/ng-interactive/2016/jul/06/the-brexit-effect-on-mental-health-cartoon","isHosted":false},{"id":"commentisfree/2016/jul/09/post-brexit-meltdown","type":"article","sectionId":"commentisfree","sectionName":"Opinion","webPublicationDate":"2016-07-09T23:02:05Z","webTitle":"I’m getting over my post-Brexit meltdown | Barbara Ellen","webUrl":"https://www.theguardian.com/commentisfree/2016/jul/09/post-brexit-meltdown","apiUrl":"https://content.guardianapis.com/commentisfree/2016/jul/09/post-brexit-meltdown","isHosted":false},{"id":"books/booksblog/2016/jul/05/literary-guides-to-brexit-secessions-in-fiction-george-rr-martin","type":"article","sectionId":"books","sectionName":"Books","webPublicationDate":"2016-07-05T13:50:02Z","webTitle":"Literary guides to Brexit: secessions in fiction","webUrl":"https://www.theguardian.com/books/booksblog/2016/jul/05/literary-guides-to-brexit-secessions-in-fiction-george-rr-martin","apiUrl":"https://content.guardianapis.com/books/booksblog/2016/jul/05/literary-guides-to-brexit-secessions-in-fiction-george-rr-martin","isHosted":false}]}}
